{
	"$id": "pig://schema/library.json",
	"definitions": {
		"absPath": {
			"type": "string",
			"pattern": "^(\/[\\w-]+)+(.[a-zA-Z]+?)$",
			"description": "Absolute path starting with some root"
		},
		"rootPath": {
			"type": "string",
			"pattern": "^(\/?[\\w-]+(\\.[\\w-]+)?)+\/?$",
			"description": "A root path to our file system"
		}
	}
}
