[
	{
		"SourceFile": "test-1.html",
		"ExifToolVersion": 10.55,
		"FileName": "test-1.html",
		"Directory": ".",
		"FileSize": "65 kB",
		"FileModifyDate": "2015:12:29 21:33:59+00:00",
		"FileAccessDate": "2017:12:12 03:10:17+00:00",
		"FileInodeChangeDate": "2017:12:12 02:45:55+00:00",
		"FilePermissions": "rw-r--r--",
		"FileType": "HTML",
		"FileTypeExtension": "html",
		"MIMEType": "text/html",
		"Title": "Adobe ExtendScript Toolkit"
	}
]
